^C:\USERS\MINAS\DOCUMENTS\CUDA\CUDA\CUDA\X64\DEBUG\KERNEL.CU.OBJ
C:\USERS\MINAS\DOCUMENTS\CUDA\CUDA\CUDA\X64\DEBUG\CUDA.EXE
C:\USERS\MINAS\DOCUMENTS\CUDA\CUDA\CUDA\X64\DEBUG\CUDA.ILK
C:\USERS\MINAS\DOCUMENTS\CUDA\CUDA\CUDA\X64\DEBUG\CUDA.PDB
